SOLUTION :
Distance Travelled = 21873
Order of travelling cities :
0
3
9
4
5
6
7
10
2
1
8

SOLUTION :
Distance Travelled = 21818
Order of travelling cities :
1
2
0
3
9
4
5
6
7
10
8

SOLUTION :
Distance Travelled = 19068
Order of travelling cities :
6
5
10
9
4
3
0
2
1
8
7